Years Experience,Employed?,Previous employers,Level of Education,Top-tier school,Interned,Hired
12,Y,1,BS,Y,N,Y
14,N,4,PhD,Y,Y,Y
0,N,0,BS,N,N,N
14,Y,0,PhD,Y,N,Y
18,N,4,MS,N,Y,Y
9,Y,1,MS,Y,N,Y
1,N,1,PhD,Y,Y,Y
5,Y,0,MS,Y,N,Y
0,N,0,BS,Y,N,Y
0,N,0,PhD,Y,Y,Y
5,N,2,MS,Y,Y,Y
10,Y,2,MS,N,N,Y
12,N,1,MS,Y,Y,Y
11,Y,2,MS,N,Y,Y
5,Y,4,PhD,Y,N,Y
20,N,1,BS,N,Y,Y
20,N,3,BS,N,Y,Y
4,Y,1,MS,N,N,Y
1,Y,2,MS,N,Y,Y
17,Y,4,MS,N,N,Y
15,N,0,MS,Y,Y,Y
7,Y,1,PhD,Y,N,Y
18,N,4,PhD,N,N,N
6,Y,2,PhD,Y,N,Y
4,Y,0,BS,Y,N,Y
17,Y,1,PhD,N,Y,Y
11,Y,2,PhD,Y,N,Y
14,N,0,PhD,N,N,N
4,Y,0,BS,Y,N,Y
15,Y,2,PhD,Y,Y,Y
11,Y,4,MS,Y,Y,Y
20,N,3,PhD,Y,N,N
14,Y,1,BS,Y,N,Y
13,Y,2,MS,Y,N,Y
6,N,4,MS,N,Y,Y
4,N,3,MS,Y,Y,Y
0,N,2,PhD,Y,N,N
19,Y,3,PhD,N,Y,Y
17,Y,1,BS,N,N,Y
5,Y,0,BS,Y,Y,Y
12,Y,2,PhD,N,N,Y
15,N,3,BS,Y,N,N
2,Y,1,MS,N,N,Y
16,Y,4,PhD,Y,Y,Y
5,Y,4,PhD,Y,Y,Y
6,N,2,BS,N,Y,Y
0,Y,4,BS,N,N,Y
4,Y,0,PhD,Y,N,Y
1,N,4,PhD,Y,N,N
9,N,0,MS,Y,N,Y
3,Y,4,MS,Y,Y,Y
6,Y,0,BS,Y,Y,Y
15,N,2,MS,Y,N,N
2,Y,1,PhD,N,Y,Y
8,Y,2,BS,N,N,Y
12,Y,1,BS,N,N,Y
18,N,0,BS,N,N,N
15,N,2,BS,N,Y,Y
3,N,2,MS,N,N,N
10,Y,4,MS,N,N,Y
8,N,4,MS,N,N,N
4,Y,1,MS,Y,N,Y
6,Y,2,BS,Y,N,Y
5,Y,3,PhD,Y,Y,Y
0,N,0,BS,N,Y,Y
7,Y,2,PhD,Y,Y,Y
17,Y,3,MS,N,Y,Y
16,Y,4,MS,N,N,Y
12,Y,3,MS,N,Y,Y
15,Y,3,PhD,N,Y,Y
13,Y,3,PhD,N,Y,Y
2,N,0,MS,Y,N,Y
10,N,2,PhD,N,N,N
11,N,1,MS,Y,N,N
14,Y,4,MS,Y,N,Y
0,N,3,PhD,N,Y,Y
16,N,0,BS,N,N,N
5,N,0,PhD,N,Y,Y
11,N,2,BS,Y,N,N
6,Y,3,BS,Y,Y,Y
11,Y,3,MS,Y,Y,Y
18,N,4,BS,N,Y,Y
5,N,4,BS,N,Y,Y
16,N,2,MS,N,N,N
10,N,3,PhD,Y,Y,Y
7,Y,1,PhD,N,Y,Y
17,N,0,PhD,N,Y,Y
11,Y,2,PhD,N,Y,Y
15,N,0,BS,Y,N,Y
1,N,0,MS,N,Y,Y
15,Y,4,BS,Y,Y,Y
6,N,1,PhD,N,N,N
16,Y,4,BS,Y,N,Y
11,N,3,PhD,Y,Y,Y
4,N,2,BS,Y,N,N
20,Y,4,BS,N,N,Y
9,N,1,PhD,Y,N,N
12,N,2,BS,Y,Y,Y
5,N,1,PhD,Y,Y,Y
10,N,3,BS,N,N,N
